{
  "route": {
    "fd08:8441:e254::/48": {
      "description": "tunneler.network.deavmi.crxn",
      "device": {
        "fd08:8441:e254::": {
          "type": "router"
        }
      }
    },
    "fdae:d3e4:83e4::/48": {
      "description": "newnet.home.deavmi.crxn",
      "device": {
        "fdae:d3e4:83e4::": {
          "type": "router"
        }
      },
      "device": {
        "fdae:d3e4:83e4:0:a480:d658:1b7:a23c": {
          "type": "server",
          "service": [{
            "description": "Deavmi's CRXN name server",
            "type": "dns",
            "endpoint": [{
              "port": 53
            }]
          }]
        }
      }
    },
    "fd40:aa42:4f39::/48": {
      "description": "iot.deavmi.crxn",
      "device": {
        "fd40:aa42:4f39::": {
          "type": "router"
        }
      }
    },
    "fd96:cd8b:f25d::/48": {
      "description": "community.deavmi.crxn",
      "device": {
        "fd96:cd8b:f25d::": {
          "type": "router"
        },
        "fd96:cd8b:f25d:0:bc46:8483:b501:8d5": {
          "type": "server",
          "service": [{
              "description": "worcester.bnet IRC server (plaintext)",
              "type": "irc",
              "endpoint": [{
                "port": 6667
              }]
            },
            {
              "description": "worcester.bnet IRC server (TLS)",
              "type": "irc",
              "endpoint": [{
                "port": 6697
              }]
            },
            {
              "description": "Deavmi's MumbleShack",
              "type": "mumble",
              "endpoint": [{
                "port": 64738
              }]
            }
          ]
        }
      }
    },
    "fdc2:9471:e3ba::/48": {
      "description": "alexsrv.deavmi.crxn",
      "device": {
        "fdc2:9471:e3ba::1": {
          "type": "router"
        }
      }
    },
    "fdd2:cbf2:61bd::/48": {
      "description": "oldnet.home.deavmi.crxn",
      "device": {
        "fdd2:cbf2:61bd::1": {
          "type": "router"
        },
        "fdd2:cbf2:61bd::2": {
          "type": "server",
          "service": [{
            "description": "Personal webserver",
            "type": "http",
            "endpoint": [{
              "port": 80
            }]
          }]
        }
      }
    },
    "fda2:a9b0:a02b::/48": {
      "description": "tiknetwork.home.deavmi.crxn",
      "device": {
        "fda2:a9b0:a02b::1": {
          "type": "router"
        }
      }
    },
    "fdf1:1dc1:f54d::/48": {
      "description": "deavmi.community.quickconnect.network1",
      "device": {
        "fdf1:1dc1:f54d::1": {
          "type": "router"
        }
      }
    }
  }
}
