{
  "route": {
    "fdd4:975c:1440::/48": {
      "description": "skiqqy.xyz",
      "device": {
        "fdd4:975c:1440::1": {
          "type": "router",
          "service": [{
              "description": "Personal webserver",
              "type": "http",
              "endpoint": [{
                "port": 81
              }]
            },
            {
              "description": "Blog",
              "type": "http",
              "endpoint": [{
                "port": 82
              }]
            }
          ]
        }
      }
    }
  }
}
