{
  "person": {
    "name": "Ty3r0X",
    "email": "ty3r0x@chaox.ro",
    "gpg": "08C1409AF173BEB101E0511A1987C830BBC99F38"
  },
  "route": {
    "fda7:3ae7:e04c::/64": {
      "description": "Chaox Operations CRXN network",
      "device": {
        "fda7:3ae7:e04c::1111:3": {
          "type": "router",
          "description": "RedXen [DE] BIRD router - CRXN & DN42"
        },
	"fda7:3ae7:e04c::1111:4": {
          "type": "router",
          "description": "Hostmaze [RO] BIRD router - CRXN & DN42"
        },
	"fda7:3ae7:e04c::1111:5": {
          "type": "router",
          "description": "Incognet [NL] BIRD router - CRXN & DN42"
        },
	"fda7:3ae7:e04c::1111:6": {
          "type": "router",
          "description": "Polarian [UK] BIRD router - CRXN & DN42"
        },
	"fda7:3ae7:e04c::1111:7": {
          "type": "router",
          "description": "RackNerd [US] BIRD router - CRXN & DN42"
        },
        "fda7:3ae7:e04c::f33d:30": {
          "description": "Laptop"
        },
	"fda7:3ae7:e04c::f33d:29": {
          "description": "C0rt3X"
        }
      }
    }
  }
}
